%YAML 1.1
%TAG !u! tag:unity3d.com,2011:
--- !u!1045 &1
EditorBuildSettings:
  m_ObjectHideFlags: 0
  serializedVersion: 2
  m_Scenes:
  - enabled: 0
    path: Assets/Test Scene/Test Scene.unity
  - enabled: 0
    path: Assets/Test Scene/Loading Scene.unity
  - enabled: 0
    path: Assets/Sample Assets/Sample Scenes/Scenes/AI Jet Plane.unity
  - enabled: 0
    path: Assets/Sample Assets/Sample Scenes/Scenes/AI Propeller Plane.unity
  - enabled: 0
    path: Assets/Sample Assets/Sample Scenes/Scenes/Jet Plane (2 Axis).unity
  - enabled: 0
    path: Assets/Sample Assets/Sample Scenes/Scenes/Propeller Plane (4 Axis).unity
  - enabled: 0
    path: Assets/Sample Assets/Sample Scenes/Scenes/AI Car.unity
  - enabled: 0
    path: Assets/Sample Assets/Sample Scenes/Scenes/AI Waypoint-Based Car.unity
  - enabled: 0
    path: Assets/Sample Assets/Sample Scenes/Scenes/Car.unity
  - enabled: 0
    path: Assets/Sample Assets/Sample Scenes/Scenes/First Person Character.unity
  - enabled: 0
    path: Assets/Sample Assets/Sample Scenes/Scenes/Rolling Ball.unity
  - enabled: 0
    path: Assets/Sample Assets/Sample Scenes/Scenes/AI Character.unity
  - enabled: 0
    path: Assets/Sample Assets/Sample Scenes/Scenes/Third Person Character.unity
  - enabled: 0
    path: Assets/Sample Assets/Effects/Light Shafts/Scenes/LightShaft Directional.unity
  - enabled: 0
    path: Assets/Sample Assets/Effects/Light Shafts/Scenes/LightShaft Spot.unity
  - enabled: 0
    path: Assets/Sample Assets/Sample Scenes/Scenes/Car.unity
  - enabled: 0
    path: Assets/Sample Assets/Sample Scenes/Scenes/First Person Character.unity
  - enabled: 0
    path: Assets/Sample Assets/Sample Scenes/Scenes/Particles.unity
  - enabled: 0
    path: Assets/Sample Assets/Sample Scenes/Scenes/Jet Plane (2 Axis).unity
  - enabled: 0
    path: Assets/Sample Assets/Sample Scenes/Scenes/Third Person Character.unity
  - enabled: 0
    path: Assets/Sample Assets/Sample Scenes/Scenes/2D Character.unity
  - enabled: 1
    path: Assets/Scenes/Level01.unity
  - enabled: 1
    path: Assets/Scenes/GameOverScene.unity
  - enabled: 1
    path: Assets/Scenes/TitleScreen.unity
